{
  "dev": {
    "app_function": "mercado_bitcoin.lambda_function",
    "aws_region": "us-east-1",
    "profile_name": "default",
    "project_name": "4-6-9-app",
    "runtime": "python3.8",
    "s3_bucket": "zappa-031mfl9n3",
    "events": [
      {
        "function": "mercado_bitcoin.lambda_function.lambda_handler",
        "expression": "rate(1 minute)"
      }
    ],
    "memory_size": 128,
    "cloudwatch_log_level": "INFO"
  }
}
